{
  "page": 1,
  "total_results": 11671,
  "total_pages": 584,
  "results": [
    {
      "vote_count": 9869,
      "id": 293660,
      "video": false,
      "vote_average": 7.4,
      "title": "Deadpool",
      "popularity": 36.50105,
      "poster_path": "deadpool",
      "original_language": "en",
      "original_title": "Deadpool",
      "genre_ids": [
        28,
        12,
        35,
        10749
      ],
      "backdrop_path": "/n1y094tVDFATSzkTnFxoGZ1qNsG.jpg",
      "adult": false,
      "overview": "Based upon Marvel Comics’ most unconventional anti-hero, DEADPOOL tells the origin story of former Special Forces operative turned mercenary Wade Wilson, who after being subjected to a rogue experiment that leaves him with accelerated healing powers, adopts the alter ego Deadpool. Armed with his new abilities and a dark, twisted sense of humor, Deadpool hunts down the man who nearly destroyed his life.",
      "release_date": "2016-02-09"
    },
    {
      "vote_count": 2750,
      "id": 283366,
      "video": false,
      "vote_average": 6.5,
      "title": "Miss Peregrine's Home for Peculiar Children",
      "popularity": 29.056599,
      "poster_path": "miss_peregrine",
      "original_language": "en",
      "original_title": "Miss Peregrine's Home for Peculiar Children",
      "genre_ids": [
        18,
        14,
        12
      ],
      "backdrop_path": "/9BVHn78oQcFCRd4M3u3NT7OrhTk.jpg",
      "adult": false,
      "overview": "A teenager finds himself transported to an island where he must help protect a group of orphans with special powers from creatures intent on destroying them.",
      "release_date": "2016-09-28"
    },
    {
      "vote_count": 4932,
      "id": 284052,
      "video": false,
      "vote_average": 7.1,
      "title": "Doctor Strange",
      "popularity": 21.390757,
      "poster_path": "doctor_strange",
      "original_language": "en",
      "original_title": "Doctor Strange",
      "genre_ids": [
        28,
        12,
        14,
        878
      ],
      "backdrop_path": "/tFI8VLMgSTTU38i8TIsklfqS9Nl.jpg",
      "adult": false,
      "overview": "After his career is destroyed, a brilliant but arrogant surgeon gets a new lease on life when a sorcerer takes him under his wing and trains him to defend the world against evil.",
      "release_date": "2016-10-25"
    },
    {
      "vote_count": 249,
      "id": 348893,
      "video": false,
      "vote_average": 5.8,
      "title": "Boyka : Undisputed IV",
      "popularity": 18.767213,
      "poster_path": "boyka",
      "original_language": "en",
      "original_title": "Boyka : Undisputed IV",
      "genre_ids": [
        53,
        28,
        80
      ],
      "backdrop_path": "/5dLLiR8IUT7T0r5HVcvRlItNWTn.jpg",
      "adult": false,
      "overview": "In the fourth installment of the fighting franchise, Boyka is shooting for the big leagues when an accidental death in the ring makes him question everything he stands for. When he finds out the wife of the man he accidentally killed is in trouble, Boyka offers to fight in a series of impossible battles to free her from a life of servitude",
      "release_date": "2016-08-01"
    },
    {
      "vote_count": 6583,
      "id": 271110,
      "video": false,
      "vote_average": 7,
      "title": "Captain America: Civil War",
      "popularity": 18.276017,
      "poster_path": "captain_america",
      "original_language": "en",
      "original_title": "Captain America: Civil War",
      "genre_ids": [
        12,
        28,
        878
      ],
      "backdrop_path": "/m5O3SZvQ6EgD5XXXLPIP1wLppeW.jpg",
      "adult": false,
      "overview": "Following the events of Age of Ultron, the collective governments of the world pass an act designed to regulate all superhuman activity. This polarizes opinion amongst the Avengers, causing two factions to side with Iron Man or Captain America, which causes an epic battle between former allies.",
      "release_date": "2016-04-27"
    },
    {
      "vote_count": 3709,
      "id": 381288,
      "video": false,
      "vote_average": 6.9,
      "title": "Split",
      "popularity": 18.051466,
      "poster_path": "split",
      "original_language": "en",
      "original_title": "Split",
      "genre_ids": [
        27,
        53
      ],
      "backdrop_path": "/4G6FNNLSIVrwSRZyFs91hQ3lZtD.jpg",
      "adult": false,
      "overview": "Though Kevin has evidenced 23 personalities to his trusted psychiatrist, Dr. Fletcher, there remains one still submerged who is set to materialize and dominate all the others. Compelled to abduct three teenage girls led by the willful, observant Casey, Kevin reaches a war for survival among all of those contained within him — as well as everyone around him — as the walls between his compartments shatter apart.",
      "release_date": "2016-11-15"
    },
    {
      "vote_count": 6357,
      "id": 209112,
      "video": false,
      "vote_average": 5.7,
      "title": "Batman v Superman: Dawn of Justice",
      "popularity": 15.806815,
      "poster_path": "batman_vs_superman",
      "original_language": "en",
      "original_title": "Batman v Superman: Dawn of Justice",
      "genre_ids": [
        28,
        12,
        14
      ],
      "backdrop_path": "/vsjBeMPZtyB7yNsYY56XYxifaQZ.jpg",
      "adult": false,
      "overview": "Fearing the actions of a god-like Super Hero left unchecked, Gotham City’s own formidable, forceful vigilante takes on Metropolis’s most revered, modern-day savior, while the world wrestles with what sort of hero it really needs. And with Batman and Superman at war with one another, a new threat quickly arises, putting mankind in greater danger than it’s ever known before.",
      "release_date": "2016-03-23"
    },
    {
      "vote_count": 4800,
      "id": 259316,
      "video": false,
      "vote_average": 7.1,
      "title": "Fantastic Beasts and Where to Find Them",
      "popularity": 15.504741,
      "poster_path": "fantastic_beasts",
      "original_language": "en",
      "original_title": "Fantastic Beasts and Where to Find Them",
      "genre_ids": [
        10751,
        14
      ],
      "backdrop_path": "/6I2tPx6KIiBB4TWFiWwNUzrbxUn.jpg",
      "adult": false,
      "overview": "In 1926, Newt Scamander arrives at the Magical Congress of the United States of America with a magically expanded briefcase, which houses a number of dangerous creatures and their habitats. When the creatures escape from the briefcase, it sends the American wizarding authorities after Newt, and threatens to strain even further the state of magical and non-magical relations.",
      "release_date": "2016-11-16"
    },
    {
      "vote_count": 4972,
      "id": 329865,
      "video": false,
      "vote_average": 7.1,
      "title": "Arrival",
      "popularity": 15.077993,
      "poster_path": "arrival",
      "original_language": "en",
      "original_title": "Arrival",
      "genre_ids": [
        53,
        18,
        878,
        9648
      ],
      "backdrop_path": "/yIZ1xendyqKvY3FGeeUYUd5X9Mm.jpg",
      "adult": false,
      "overview": "Taking place after alien crafts land around the world, an expert linguist is recruited by the military to determine whether they come in peace or are a threat.",
      "release_date": "2016-11-10"
    },
    {
      "vote_count": 6722,
      "id": 297761,
      "video": false,
      "vote_average": 5.9,
      "title": "Suicide Squad",
      "popularity": 13.874593,
      "poster_path": "suicide_squad",
      "original_language": "en",
      "original_title": "Suicide Squad",
      "genre_ids": [
        28,
        80,
        14,
        878
      ],
      "backdrop_path": "/34dxtTxMHGKw1njHpTjDqR8UBHd.jpg",
      "adult": false,
      "overview": "From DC Comics comes the Suicide Squad, an antihero team of incarcerated supervillains who act as deniable assets for the United States government, undertaking high-risk black ops missions in exchange for commuted prison sentences.",
      "release_date": "2016-08-02"
    },
    {
      "vote_count": 4521,
      "id": 330459,
      "video": false,
      "vote_average": 7.4,
      "title": "Rogue One: A Star Wars Story",
      "popularity": 13.726993,
      "poster_path": "rogue_one",
      "original_language": "en",
      "original_title": "Rogue One: A Star Wars Story",
      "genre_ids": [
        12,
        878,
        28
      ],
      "backdrop_path": "/tZjVVIYXACV4IIIhXeIM59ytqwS.jpg",
      "adult": false,
      "overview": "A rogue band of resistance fighters unite for a mission to steal the Death Star plans and bring a new hope to the galaxy.",
      "release_date": "2016-12-14"
    },
    {
      "vote_count": 4308,
      "id": 269149,
      "video": false,
      "vote_average": 7.7,
      "title": "Zootopia",
      "popularity": 13.502832,
      "poster_path": "zootopia",
      "original_language": "en",
      "original_title": "Zootopia",
      "genre_ids": [
        16,
        12,
        10751,
        35
      ],
      "backdrop_path": "/mhdeE1yShHTaDbJVdWyTlzFvNkr.jpg",
      "adult": false,
      "overview": "Determined to prove herself, Officer Judy Hopps, the first bunny on Zootopia's police force, jumps at the chance to crack her first case - even if it means partnering with scam-artist fox Nick Wilde to solve the mystery.",
      "release_date": "2016-02-11"
    },
    {
      "vote_count": 2735,
      "id": 324786,
      "video": false,
      "vote_average": 7.7,
      "title": "Hacksaw Ridge",
      "popularity": 12.88602,
      "poster_path": "hacksaw_ridge",
      "original_language": "en",
      "original_title": "Hacksaw Ridge",
      "genre_ids": [
        18,
        36,
        10752
      ],
      "backdrop_path": "/zBK4QZONMQXhcgaJv1YYTdCW7q9.jpg",
      "adult": false,
      "overview": "WWII American Army Medic Desmond T. Doss, who served during the Battle of Okinawa, refuses to kill people and becomes the first Conscientious Objector in American history to win the Congressional Medal of Honor.",
      "release_date": "2016-10-07"
    },
    {
      "vote_count": 3952,
      "id": 313369,
      "video": false,
      "vote_average": 7.8,
      "title": "La La Land",
      "popularity": 12.080899,
      "poster_path": "lalaland",
      "original_language": "en",
      "original_title": "La La Land",
      "genre_ids": [
        35,
        18,
        10402,
        10749
      ],
      "backdrop_path": "/fp6X6yhgcxzxCpmM0EVC6V9B8XB.jpg",
      "adult": false,
      "overview": "Mia, an aspiring actress, serves lattes to movie stars in between auditions and Sebastian, a jazz musician, scrapes by playing cocktail party gigs in dingy bars, but as success mounts they are faced with decisions that begin to fray the fragile fabric of their love affair, and the dreams they worked so hard to maintain in each other threaten to rip them apart.",
      "release_date": "2016-11-29"
    },
    {
      "vote_count": 4313,
      "id": 246655,
      "video": false,
      "vote_average": 6.4,
      "title": "X-Men: Apocalypse",
      "popularity": 11.885317,
      "poster_path": "xmen",
      "original_language": "en",
      "original_title": "X-Men: Apocalypse",
      "genre_ids": [
        878
      ],
      "backdrop_path": "/oQWWth5AOtbWG9o8SCAviGcADed.jpg",
      "adult": false,
      "overview": "After the re-emergence of the world's first mutant, world-destroyer Apocalypse, the X-Men must unite to defeat his extinction level plan.",
      "release_date": "2016-05-18"
    },
    {
      "vote_count": 2053,
      "id": 335797,
      "video": false,
      "vote_average": 6.8,
      "title": "Sing",
      "popularity": 10.075113,
      "poster_path": "sing",
      "original_language": "en",
      "original_title": "Sing",
      "genre_ids": [
        16,
        35,
        18,
        10751,
        10402
      ],
      "backdrop_path": "/usJKCEMXV3tECgIJj8ZTEndmY2E.jpg",
      "adult": false,
      "overview": "A koala named Buster recruits his best friend to help him drum up business for his theater by hosting a singing competition.",
      "release_date": "2016-11-23"
    },
    {
      "vote_count": 1199,
      "id": 311324,
      "video": false,
      "vote_average": 5.9,
      "title": "The Great Wall",
      "popularity": 9.716135,
      "poster_path": "the_great_wall",
      "original_language": "en",
      "original_title": "The Great Wall",
      "genre_ids": [
        28,
        12,
        14
      ],
      "backdrop_path": "/rym1ecQJVj1NhZnigRePtiusorF.jpg",
      "adult": false,
      "overview": "European mercenaries searching for black powder become embroiled in the defense of the Great Wall of China against a horde of monstrous creatures.",
      "release_date": "2016-12-16"
    },
    {
      "vote_count": 2821,
      "id": 291805,
      "video": false,
      "vote_average": 6.6,
      "title": "Now You See Me 2",
      "popularity": 9.479717,
      "poster_path": "now_you_see_me",
      "original_language": "en",
      "original_title": "Now You See Me 2",
      "genre_ids": [
        28,
        12,
        35,
        80,
        9648,
        53
      ],
      "backdrop_path": "/zrAO2OOa6s6dQMQ7zsUbDyIBrAP.jpg",
      "adult": false,
      "overview": "One year after outwitting the FBI and winning the public’s adulation with their mind-bending spectacles, the Four Horsemen resurface only to find themselves face to face with a new enemy who enlists them to pull off their most dangerous heist yet.",
      "release_date": "2016-06-02"
    },
    {
      "vote_count": 3846,
      "id": 127380,
      "video": false,
      "vote_average": 6.8,
      "title": "Finding Dory",
      "popularity": 9.457656,
      "poster_path": "finding_dorry",
      "original_language": "en",
      "original_title": "Finding Dory",
      "genre_ids": [
        12,
        16,
        35,
        10751
      ],
      "backdrop_path": "/3iSCdXjDmY3DuEOUYsElu35vQU6.jpg",
      "adult": false,
      "overview": "Dory is reunited with her friends Nemo and Marlin in the search for answers about her past. What can she remember? Who are her parents? And where did she learn to speak Whale?",
      "release_date": "2016-06-16"
    },
    {
      "vote_count": 1761,
      "id": 262504,
      "video": false,
      "vote_average": 5.8,
      "title": "Allegiant",
      "popularity": 9.29425,
      "poster_path": "allegiant",
      "original_language": "en",
      "original_title": "Allegiant",
      "genre_ids": [
        12,
        878
      ],
      "backdrop_path": "/sFthBeT0Y3WVfg6b3MkcJs9qfzq.jpg",
      "adult": false,
      "overview": "Beatrice Prior and Tobias Eaton venture into the world outside of the fence and are taken into protective custody by a mysterious agency known as the Bureau of Genetic Welfare.",
      "release_date": "2016-03-09"
    }
  ]
}