{
  "page": 1,
  "total_results": 370,
  "total_pages": 19,
  "results": [
    {
      "vote_count": 1,
      "id": 396017,
      "video": false,
      "vote_average": 10,
      "title": "The New Adventures of Peter Pan: Fairy Friendship",
      "popularity": 1.018177,
      "poster_path": "peter_pan",
      "original_language": "fr",
      "original_title": "The New Adventures of Peter Pan: Fairy Friendship",
      "genre_ids": [
        10751,
        16,
        12
      ],
      "backdrop_path": "/3z6o3p7f3Zfi30UHudg0MlxeUVO.jpg",
      "adult": false,
      "overview": "",
      "release_date": "2016-02-02"
    },
    {
      "vote_count": 1,
      "id": 427100,
      "video": false,
      "vote_average": 10,
      "title": "Loewie",
      "popularity": 1.008652,
      "poster_path": "loewie",
      "original_language": "nl",
      "original_title": "Loewie",
      "genre_ids": [
        10751
      ],
      "backdrop_path": "/gj3alPEoQkAFURSqZIPkyr4eh11.jpg",
      "adult": false,
      "overview": "One quiet autumn evening, Elisa gets a surprise visit from her grandfather. He tells her an enchanting Saint-Nicolas story...",
      "release_date": "2016-10-29"
    },
    {
      "vote_count": 1,
      "id": 415031,
      "video": false,
      "vote_average": 10,
      "title": "The Oddsockeaters",
      "popularity": 1.013627,
      "poster_path": "oddsockeaters",
      "original_language": "cs",
      "original_title": "Lichožrouti",
      "genre_ids": [
        12,
        10751,
        16
      ],
      "backdrop_path": "/3nZmT8MiB9cS65FT1T7b58HgfVO.jpg",
      "adult": false,
      "overview": "ODDSOCKEATERS are small invisible creatures, responsible for socks that go missing when we only have one left from a pair. But unlike them, Seed’s gang wants to have a pair. In the end, they began their fight between two sets of values.",
      "release_date": "2016-10-20"
    },
    {
      "vote_count": 2,
      "id": 411545,
      "video": false,
      "vote_average": 10,
      "title": "Gibby",
      "popularity": 1.335847,
      "poster_path": "gibby",
      "original_language": "en",
      "original_title": "Gibby",
      "genre_ids": [
        10751
      ],
      "backdrop_path": "/eDDIPDsXvkCI3zyKFFY2DcBw90e.jpg",
      "adult": false,
      "overview": "A young teenage girl, Katie, can not snap out of her depression after losing her mother. Katie has lost interest in school, her friends, and gymnastics. All that changes in the summer when she is asked to monkeysit Gibby, her science teacher's Capuchin monkey. Taking care of the monkey changes her life in a big way. Gibby's happy-go-lucky personality renews Katie's zest for life. Gibby helps her with gymnastics, renewing friendships (including finding a potential boyfriend) and overcoming her nemesis, a mean girl who is out to beat Katie at everything.",
      "release_date": "2016-08-02"
    },
    {
      "vote_count": 1,
      "id": 419645,
      "video": false,
      "vote_average": 10,
      "title": "Lost in the Moonlight",
      "popularity": 1.538352,
      "poster_path": "lost_in_moonlight",
      "original_language": "ko",
      "original_title": "달빛궁궐",
      "genre_ids": [
        10751,
        12,
        16,
        14
      ],
      "backdrop_path": "/1wjJiUDIOMWx1dx4Qbcx5551VOy.jpg",
      "adult": false,
      "overview": "13 year-old girl Hyunjuli participates in a children’s Korean traditional play rehearsal in Changdeokgung Palace and accidentally falls into another world – the Moonlit Palace. The Moonlit Palace is a fantasy world of mysterious spirits and gods, where a dragon or talking mushrooms are nothing out of ordinary. Meeting new friends, Mr. Squirrel and the warrior Won, Hyunjuli explores this strange yet wonderful world to find a way back home. However, due to the trick of the Blossom Lady, who tries to rule this Moonlit World, Hyunjuli and friends fall into trouble. Will Hyunjuli be able to help her new friends to save their world and return home safely?",
      "release_date": "2016-09-07"
    },
    {
      "vote_count": 1,
      "id": 434079,
      "video": false,
      "vote_average": 10,
      "title": "Děda",
      "popularity": 1.005606,
      "poster_path": "deda",
      "original_language": "cs",
      "original_title": "Děda",
      "genre_ids": [
        35,
        10751
      ],
      "backdrop_path": "/ipGOuaZdYMBZVHpKbWoZSO8U61g.jpg",
      "adult": false,
      "overview": "",
      "release_date": "2016-06-02"
    },
    {
      "vote_count": 1,
      "id": 423550,
      "video": false,
      "vote_average": 10,
      "title": "Matt Pokora : RED Tour",
      "popularity": 1.007289,
      "poster_path": "matt_pokora",
      "original_language": "fr",
      "original_title": "Matt Pokora : RED Tour",
      "genre_ids": [
        10751
      ],
      "backdrop_path": null,
      "adult": false,
      "overview": "",
      "release_date": "2016-04-01"
    },
    {
      "vote_count": 1,
      "id": 399686,
      "video": false,
      "vote_average": 10,
      "title": "Dragón",
      "popularity": 1.019485,
      "poster_path": "dragon",
      "original_language": "es",
      "original_title": "Dragón",
      "genre_ids": [
        12,
        878,
        10751,
        14
      ],
      "backdrop_path": null,
      "adult": false,
      "overview": "",
      "release_date": "2016-05-16"
    },
    {
      "vote_count": 3,
      "id": 381950,
      "video": false,
      "vote_average": 9.3,
      "title": "The Wonderful World of Disney: Disneyland 60",
      "popularity": 1.308406,
      "poster_path": "disneyland",
      "original_language": "en",
      "original_title": "The Wonderful World of Disney: Disneyland 60",
      "genre_ids": [
        10751
      ],
      "backdrop_path": "/hmU2ckFPVbPvCE3zcb4GyQ0ac6l.jpg",
      "adult": false,
      "overview": "Walt Disney, one of the ultimate dreamers, used his uninhibited imagination and determination to create what became the springboard for all of the Walt Disney Company's spirited and wildly successful creativity that followed -- his crowning achievement: Disneyland.  Acclaimed actor Harrison Ford, who portrays Han Solo in the Star Wars film franchise, will give viewers an exclusive preview of Star Wars-themed lands being developed at Disneyland and Walt Disney World Resorts. New details of the ambitious plans to bring Star Wars to life at both resorts will be revealed during the show, with Master of Ceremonies Derek Hough.",
      "release_date": "2016-02-21"
    },
    {
      "vote_count": 1,
      "id": 381123,
      "video": false,
      "vote_average": 9,
      "title": "The LEGO Movie 4D: A New Adventure",
      "popularity": 1.242993,
      "poster_path": "lego",
      "original_language": "en",
      "original_title": "The LEGO Movie 4D: A New Adventure",
      "genre_ids": [
        10751,
        16
      ],
      "backdrop_path": "/xVvMBOyhDdIdCkopviQSEQ8PIT2.jpg",
      "adult": false,
      "overview": "Emmet, Wyldstyle, Unikitty, MetalBeard and Benny reunite at the invitation of a shady new character, Risky Business, who plans to open a curious theme park bearing a suspicious resemblance to LEGOLAND®.",
      "release_date": "2016-01-29"
    },
    {
      "vote_count": 1,
      "id": 425694,
      "video": false,
      "vote_average": 9,
      "title": "Chaar Sahibzaade: Rise of Banda Singh Bahadur",
      "popularity": 1.045896,
      "poster_path": "chaar_sahibzaade",
      "original_language": "pa",
      "original_title": "Chaar Sahibzaade: Rise of Banda Singh Bahadur",
      "genre_ids": [
        28,
        12,
        16,
        99,
        10751,
        36
      ],
      "backdrop_path": "/eEUgVY6aEuRupRVBy3rCJQ0vPEp.jpg",
      "adult": false,
      "overview": "Chaar Sahibzaade: Rise of Banda Singh Bahadur Animation movie  A profound and courageous story on how Guru Grace changed Banda Singh Bahadur in and out and enabled him to lead Sikh army to Punjab province to establish righteousness and equality in the state and to punish the Mughals who killed four sons (Chaar Sahibzaade) of Sri Guru Gobind Singh JI along with thousands of innocent Sikhs and Hindu's, under their slaughterous rule",
      "release_date": "2016-11-11"
    },
    {
      "vote_count": 1,
      "id": 428136,
      "video": false,
      "vote_average": 9,
      "title": "1985 The Movie",
      "popularity": 1.005156,
      "poster_path": "year_1985",
      "original_language": "en",
      "original_title": "1985",
      "genre_ids": [
        12,
        35,
        18,
        10751
      ],
      "backdrop_path": null,
      "adult": false,
      "overview": "When an adventurous Hmong teen discovers a secret map to a mythical dragon, he and his three best friends decide to go on a quest that leads them on a journey filled with danger, excitement, and self-discovery.",
      "release_date": "2016-05-03"
    },
    {
      "vote_count": 1,
      "id": 428330,
      "video": false,
      "vote_average": 9,
      "title": "Angel 2",
      "popularity": 1.052545,
      "poster_path": "andel_pane",
      "original_language": "cs",
      "original_title": "Anděl Páně 2",
      "genre_ids": [
        10751,
        14,
        35
      ],
      "backdrop_path": "/2KU46Shar3cQle6zZbMt8hNTGub.jpg",
      "adult": false,
      "overview": "A story that takes place during Advent, we'll meet again with your favorite pair angel Petronel  and devil Urias. Their eternal wrangling causes the rare apple from the tree of the knowledge to roll on earth. And that God is really angry. Petronel with Urias find themselves in a small Czech town on the eve of the feast of St. Nicholas.  And after a series of human and \"divine\" tests our heroes eventually find that the path to knowledge leads primarily through self discovery through the strength of friendship, love and forgiveness skills.",
      "release_date": "2016-12-01"
    },
    {
      "vote_count": 2,
      "id": 420590,
      "video": false,
      "vote_average": 9,
      "title": "De Zevende Hemel",
      "popularity": 1.10254,
      "poster_path": "zevende_hemel",
      "original_language": "nl",
      "original_title": "De Zevende Hemel",
      "genre_ids": [
        18,
        10751,
        35,
        10402
      ],
      "backdrop_path": "/209uBKrr29jaZUduw2u9x6c8lv9.jpg",
      "adult": false,
      "overview": "",
      "release_date": "2016-11-24"
    },
    {
      "vote_count": 3,
      "id": 426862,
      "video": false,
      "vote_average": 8.7,
      "title": "Crayon Shin-chan: Fast Asleep! Dreaming World Big Assault!",
      "popularity": 1.475902,
      "poster_path": "crayon_shin_chan",
      "original_language": "ja",
      "original_title": "クレヨンしんちゃん 爆睡!ユメミーワールド大突撃",
      "genre_ids": [
        10751,
        12,
        16,
        35
      ],
      "backdrop_path": "/nCEvjt19GEJvcPjrkXxjdu5aSkd.jpg",
      "adult": false,
      "overview": "During his sleep, Shinnosuke enters a fantasy world where he could find all his favorite things, starting from chocolates, cakes and candies to young and beautiful girls in voluptuous and salacious clothes. But it soon turns out to be a nightmare world where Shinnosuke, his friends and family get trapped and are unable to escape. They also meet a mysterious girl named Saki who is somehow connected to these dreams. Now it is up to Shinnosuke and the Kasukabe Defense Group to save their dreams and escape from the nightmare world.",
      "release_date": "2016-04-16"
    },
    {
      "vote_count": 3,
      "id": 451075,
      "video": false,
      "vote_average": 8.7,
      "title": "Before All Others",
      "popularity": 1.009719,
      "poster_path": "before_all_others",
      "original_language": "en",
      "original_title": "Before All Others",
      "genre_ids": [
        10751
      ],
      "backdrop_path": null,
      "adult": false,
      "overview": "A young woman's world is turned upside down when she is struck with a paralyzing disease and forced to live with her estranged grandmother who she hasn't seen since she was a little girl. Rose, a widowed and lonely senior, finds a new purpose in life: to fix a 20-year-old family secret.",
      "release_date": "2016-01-06"
    },
    {
      "vote_count": 2,
      "id": 423156,
      "video": false,
      "vote_average": 8.5,
      "title": "Sidekick",
      "popularity": 1.045166,
      "poster_path": "sidekick",
      "original_language": "en",
      "original_title": "Sidekick",
      "genre_ids": [
        18,
        28,
        10751,
        14
      ],
      "backdrop_path": "/npRKwm2Gf5bQMdCowwLuXrLcLkU.jpg",
      "adult": false,
      "overview": "Sidekick is a short film about a struggling father who uses a bedtime story to impart an important life lesson to his son.",
      "release_date": "2016-10-28"
    },
    {
      "vote_count": 8,
      "id": 339526,
      "video": false,
      "vote_average": 8.4,
      "title": "The Land Before Time XIV: Journey of the Brave",
      "popularity": 1.735192,
      "poster_path": "land_before_time",
      "original_language": "en",
      "original_title": "The Land Before Time XIV: Journey of the Brave",
      "genre_ids": [
        12,
        16,
        10751
      ],
      "backdrop_path": "/xcR2tnxEaYHRE7xaS3PG7Knzxs2.jpg",
      "adult": false,
      "overview": "On a day known to the dinosaurs as \"Treasure Day\", Bron becomes stuck in the Mysterious Beyond. This event urges the young Longneck to take his friends on a quest to the Fire Mountain to save his father. Along the way, they befriend a Flyer.",
      "release_date": "2016-02-02"
    },
    {
      "vote_count": 4,
      "id": 369094,
      "video": false,
      "vote_average": 8.3,
      "title": "Iraivi",
      "popularity": 1.173404,
      "poster_path": "iraivi",
      "original_language": "ta",
      "original_title": "இறைவி",
      "genre_ids": [
        80,
        18,
        10751,
        10749
      ],
      "backdrop_path": "/gMLYFyfbF3nT7cRHlvCzG2e3B9K.jpg",
      "adult": false,
      "overview": "Three men try to overcome the problems in their lives not realising the impact their efforts are having on the women in their lives.",
      "release_date": "2016-06-03"
    },
    {
      "vote_count": 4,
      "id": 416239,
      "video": false,
      "vote_average": 8.3,
      "title": "Actor in Law",
      "popularity": 1.011456,
      "poster_path": "actor_in_law",
      "original_language": "en",
      "original_title": "ایکٹراِن لاء",
      "genre_ids": [
        35,
        18,
        10751,
        14,
        10749
      ],
      "backdrop_path": "/mO1BCtdwqiLmqv9EAURNoG3qikz.jpg",
      "adult": false,
      "overview": "An aspiring actor (Fahad Mustafa) succumbs to pressure from his father (Om Puri) and takes up the role of lawyer.",
      "release_date": "2016-09-08"
    }
  ]
}